{
  "type": "tab",
  "id": "396136e3.c69eca",
  "label": "CDN Proxy",
  "flow": [
    {
      "id": "9d5fd369.62a03",
      "type": "http in",
      "z": "396136e3.c69eca",
      "name": "Content Request",
      "url": "/content/*",
      "method": "get",
      "swaggerDoc": "",
      "x": 153.33331108093262,
      "y": 144.6666555404663,
      "wires": [
        [
          "d697712c.29689"
        ]
      ]
    },
    {
      "id": "1aae96ab.e55169",
      "type": "http request",
      "z": "396136e3.c69eca",
      "name": "Get from Remote Store",
      "method": "GET",
      "ret": "bin",
      "url": "",
      "x": 597.7777767181396,
      "y": 144.33332633972168,
      "wires": [
        [
          "3f42f031.c0bd1"
        ]
      ]
    },
    {
      "id": "d697712c.29689",
      "type": "function",
      "z": "396136e3.c69eca",
      "name": "Content Store URL",
      "func": "\n// S3 Content store\nvar assetStore = 'https://s3-eu-west-1.amazonaws.com/connected-exp-demo-files.redant.com/';\n\n//Assets are held locally on the server\n/*if (process.env.LOCAL_CDN_PORT) {\n    node.warn('Local CDN');\n    assetStore = 'http://localhost:' + process.env.LOCAL_CDN_PORT + '/';\n}\n*/\n\nmsg.url = assetStore + msg.req.params[0];\n\nreturn msg;",
      "outputs": 1,
      "noerr": 0,
      "x": 363.3333263397217,
      "y": 144.4444408416748,
      "wires": [
        [
          "1aae96ab.e55169"
        ]
      ]
    },
    {
      "id": "3f42f031.c0bd1",
      "type": "http response",
      "z": "396136e3.c69eca",
      "name": "Respond",
      "x": 806.6666088104248,
      "y": 144.111102104187,
      "wires": []
    },
    {
      "id": "de3358fd.21cca8",
      "type": "comment",
      "z": "396136e3.c69eca",
      "name": "Redirects to specific content store (could be S3 bucket or local to server)",
      "info": "",
      "x": 336.66664102342395,
      "y": 96.66665564643012,
      "wires": []
    },
    {
      "id": "a9d4bc90.2571a",
      "type": "http in",
      "z": "396136e3.c69eca",
      "name": "Local Request",
      "url": "/local/*",
      "method": "get",
      "swaggerDoc": "",
      "x": 150,
      "y": 260,
      "wires": [
        [
          "8626ec1c.2c025"
        ]
      ]
    },
    {
      "id": "e6698e5e.a20d4",
      "type": "http request",
      "z": "396136e3.c69eca",
      "name": "Get from Remote Store",
      "method": "GET",
      "ret": "bin",
      "url": "",
      "x": 604.444465637207,
      "y": 259.66667079925537,
      "wires": [
        [
          "93657014.bce1"
        ]
      ]
    },
    {
      "id": "8626ec1c.2c025",
      "type": "function",
      "z": "396136e3.c69eca",
      "name": "Local server port 8000",
      "func": "\n// S3 Content store\nvar assetStore = 'http://localhost:8000/';\n\nmsg.url = assetStore + msg.req.params[0];\n\nreturn msg;",
      "outputs": 1,
      "noerr": 0,
      "x": 375.00001525878906,
      "y": 259.7777853012085,
      "wires": [
        [
          "e6698e5e.a20d4"
        ]
      ]
    },
    {
      "id": "93657014.bce1",
      "type": "http response",
      "z": "396136e3.c69eca",
      "name": "Respond",
      "x": 813.3332977294922,
      "y": 259.4444465637207,
      "wires": []
    },
    {
      "id": "4f566518.c5209c",
      "type": "comment",
      "z": "396136e3.c69eca",
      "name": "Redirects to specific content store on local to server",
      "info": "",
      "x": 270,
      "y": 220,
      "wires": []
    }
  ]
}